<?xml version="1.0" encoding="iso-8859-1"?>
<!-- Generator: Adobe Illustrator 16.0.0, SVG Export Plug-In . SVG Version: 6.00 Build 0)  -->
<!DOCTYPE svg PUBLIC "-//W3C//DTD SVG 1.1//EN" "http://www.w3.org/Graphics/SVG/1.1/DTD/svg11.dtd">
<svg version="1.1" id="Capa_1" xmlns="http://www.w3.org/2000/svg" xmlns:xlink="http://www.w3.org/1999/xlink" x="0px" y="0px"
	 width="50px" height="24.748px" viewBox="0 0 31 6" style="enable-background:new 0 0 24.748 24.748;"
	 xml:space="preserve">
	 <path style="fill:#DA3C3C" d="M 0 0 L 6 0 L 6 6 L 0 6 L 0 0 M 8 2 C 7 2 7 3 7 3 C 7 3 7 4 8 4 L 11 4 C 12 4 12 3 12 3 C 12 3 12 2 11 2 M 11 2 L 8 2 M 14 2 C 13 2 13 3 13 3 C 13 3 13 4 14 4 L 17 4 C 18 4 18 3 18 3 C 18 3 18 2 17 2 L 14 2 M 20 2 C 19 2 19 3 19 3 C 19 3 19 4 20 4 L 23 4 C 24 4 24 3 24 3 C 24 3 24 2 23 2 L 20 2 M 25 0 L 25 6 L 31 6 L 31 0 L 25 0"/>
</svg>
