<?xml version="1.0" encoding="iso-8859-1"?>
<!-- Generator: Adobe Illustrator 16.0.0, SVG Export Plug-In . SVG Version: 6.00 Build 0)  -->
<!DOCTYPE svg PUBLIC "-//W3C//DTD SVG 1.1//EN" "http://www.w3.org/Graphics/SVG/1.1/DTD/svg11.dtd">
<svg version="1.1" id="Capa_1" xmlns="http://www.w3.org/2000/svg" xmlns:xlink="http://www.w3.org/1999/xlink" x="0px" y="0px"
	 width="50px" height="24.748px" viewBox="0 0 1604 763.602" style="enable-background:new 0 0 24.748 24.748;"
	 xml:space="preserve">
	 <path d="M236.908,128.595L41.975,2.408c-4.609-2.984-10.482-3.211-15.307-0.591
	c-4.826,2.62-7.836,7.667-7.844,13.158l-0.375,232.206c-0.01,6.372,4.006,12.054,10.014,14.172c1.635,0.576,3.316,0.854,4.982,0.854
	c4.465,0,8.803-1.997,11.705-5.617l71.455-89.101l113.646-11.378c6.34-0.635,11.586-5.206,13.084-11.398
	C244.834,138.521,242.258,132.057,236.908,128.595z"/>
	 <path style="fill:#DA3C3C" d="M 120 175 L 407.068 175 L 407.068 462.068 L 120 462.068 L 120 175 M 502.7573 270.6893 C 454.9127 270.6893 454.9127 318.534 454.9127 318.534 C 454.9127 318.534 454.9127 366.3787 502.7573 366.3787 L 646.2913 366.3787 C 694.136 366.3787 694.136 318.534 694.136 318.534 C 694.136 318.534 694.136 270.6893 646.2913 270.6893 M 646.2913 270.6893 L 502.7573 270.6893 M 789.8253 270.6893 C 741.9807 270.6893 741.9807 318.534 741.9807 318.534 C 741.9807 318.534 741.9807 366.3787 789.8253 366.3787 L 933.3593 366.3787 C 981.204 366.3787 981.204 318.534 981.204 318.534 C 981.204 318.534 981.204 270.6893 933.3593 270.6893 L 789.8253 270.6893 M 1076.8933 270.6893 C 1029.0487 270.6893 1029.0487 318.534 1029.0487 318.534 C 1029.0487 318.534 1029.0487 366.3787 1076.8933 366.3787 L 1220.4273 366.3787 C 1268.272 366.3787 1268.272 318.534 1268.272 318.534 C 1268.272 318.534 1268.272 270.6893 1220.4273 270.6893 L 1076.8933 270.6893 M 1316.1167 175 L 1316.1167 462.068 L 1603.1847 462.068 L 1603.1847 175 L 1316.1167 175"/>
</svg>
